{
  "tCharacters" : {
    "STE" : {
      "firstName" : "Steven",
      "domain" : "0"
    },
    "ALE" : {
      "firstName" : "Alex",
      "domain" : "0"
    }
  },
  "tDomains" : {
    "1" : {
      "locations" : {
        "CHR" : "Chronos City"
      }
    }
  },
  "tChapters" : {
    "1.1" : {
      "title" : "Earth Lost",
      "content" : "This world was no stranger to the unconventional. Creatures of amazing power and portals capable of travel through time were commonplace. In one building in particular, things were about to change; for better or for worse."
    },
    "1.2" : {
      "content" : "{ALE:1} was a part of a group of individuals responsible for keeping the timeline intact. When portals opened, he was part of the team that would locate and quarantine them until they closed naturally. His employee, and longtime friend {STE:1}, had recruited him and his past self as a result of self-fulfilling paradox. The timeline has changed significantly since then, the advances of the team have progressed faster than they originally should have.\n\n\"What is it,\" asked {ALE:1}, as he entered the main testing chamber.\n\"I think I've figured it out,\" replied {STE:1}. \"A fully functionally time portal manipulator. If I've done the maths right it should be able to close existing portals, and open new ones if we need to for whatever reason.\"\n\"Alright, fire it up. We'll take it for a test.\"\n{STE:1} started pressing button and turning dials, before finally flicking a toggle switch.\n\"I'm setting it for this time next year. We'll send a probe through and see what happens.\"\n\nThe machine started charging before making a loud whooshing noise akin to ocean waves battering against the shore. A time portal no larger than half a meter in radius shattered reality before them. Swirling patterns of light filled the room as {ALE:1} looked on in awe, while {STE:1} too preoccupied on the machine to admire his work.\n\n\"Huh, it worked? It actually worked?\"\n\"One step at a time,\" intervened {STE:1}. \"We need to make sure it's stable for travel. Turn on the probe.\"\nIt was a small fortified radio-controlled four-wheel vehicle, no larger than a shoebox."
    }
  },
  "tNotes" : [
    "Starts in Time Jumpers domain.",
    "Trying to find Doctor Omega."
  ]
}